…
# Exercise 3: Examples

``` r
# I will demonstrate several examples of this function using a few different datasets.

# First, we will get a summary of the diameter of trees found in different neighbourhoods in the City of Vancouver using the vancouver_trees dataset from datateachr. I worked with this dataset for the MDA and questions like this one are what prompted me to create this function.

summarize_vancouver_nbhd_diam <- summarize_obs_by_var_group(vancouver_trees, neighbourhood_name, diameter)

summarize_vancouver_nbhd_diam
```

    ## # A tibble: 22 × 5
    ##    neighbourhood_name           n  mean stdev range
    ##    <chr>                    <int> <dbl> <dbl> <dbl>
    ##  1 ARBUTUS-RIDGE             5169 11.9   8.67  62  
    ##  2 DOWNTOWN                  5159  7.45  5.12 150  
    ##  3 DUNBAR-SOUTHLANDS         9415 13.9  11.0  305  
    ##  4 FAIRVIEW                  4002 10.6   7.98  97.8
    ##  5 GRANDVIEW-WOODLAND        6703 11.4   9.12  63  
    ##  6 HASTINGS-SUNRISE         10547 11.0   9.49 435  
    ##  7 KENSINGTON-CEDAR COTTAGE 11042 11.7   8.93  99  
    ##  8 KERRISDALE                6936 12.7   9.80 156  
    ##  9 KILLARNEY                 6148 10.1   7.49  50  
    ## 10 KITSILANO                 8115 14.4  10.8  317  
    ## # ℹ 12 more rows

``` r
# Another example can be used with the steam_games dataset also from the datateachr package. Here, we will get the summary stats for original price of games grouped by developer.

summarize_games_developer_price <- summarize_obs_by_var_group(steam_games, developer, original_price)

summarize_games_developer_price
```

    ## # A tibble: 17,419 × 5
    ##    developer                      n  mean stdev range
    ##    <chr>                      <int> <dbl> <dbl> <dbl>
    ##  1 #workshop                      3 NA    NA       NA
    ##  2 'What Day is it?' Games        1  6.99 NA        0
    ##  3 (Not Applicable)               1 NA    NA       NA
    ##  4 (STCG) Smoker The Car Game     1  0.99 NA        0
    ##  5 +7 Software                    3 NA    NA       NA
    ##  6 +Mpact Games, LLC.             1  6.99 NA        0
    ##  7 .ez Games                      1  0.99 NA        0
    ##  8 01 Studio                      1 NA    NA       NA
    ##  9 07th Expansion                11 NA    NA       NA
    ## 10 08 Games                       2  4.49  3.54     5
    ## # ℹ 17,409 more rows
…
